<mxfile host="app.diagrams.net" modified="2023-02-08T05:18:17.830Z" agent="5.0 (Windows NT 10.0; Win64; x64) AppleWebKit/537.36 (KHTML, like Gecko) Chrome/109.0.0.0 Safari/537.36" etag="RnhmDeDH4CfNWjeb3oIx" version="20.8.17" type="gitlab">
  <diagram name="Página-1" id="7xWuHtDnmOfKl-PHBv6e">
    <mxGraphModel dx="989" dy="527" grid="0" gridSize="10" guides="1" tooltips="1" connect="1" arrows="1" fold="1" page="1" pageScale="1" pageWidth="827" pageHeight="1169" background="#5E6B6B" math="0" shadow="0">
      <root>
        <mxCell id="0" />
        <mxCell id="1" parent="0" />
        <mxCell id="80Vt3J0COfULpWK-8F6P-9" value="" style="edgeStyle=orthogonalEdgeStyle;rounded=0;orthogonalLoop=1;jettySize=auto;html=1;labelBackgroundColor=none;strokeColor=#FF6392;fontColor=default;" edge="1" parent="1" source="80Vt3J0COfULpWK-8F6P-1" target="80Vt3J0COfULpWK-8F6P-2">
          <mxGeometry relative="1" as="geometry">
            <Array as="points">
              <mxPoint x="323" y="168" />
              <mxPoint x="323" y="168" />
            </Array>
          </mxGeometry>
        </mxCell>
        <mxCell id="80Vt3J0COfULpWK-8F6P-1" value="Simulador" style="rounded=1;whiteSpace=wrap;html=1;labelBackgroundColor=none;fillColor=#FFE45E;strokeColor=#FF6392;fontColor=#5AA9E6;" vertex="1" parent="1">
          <mxGeometry x="193" y="158" width="120" height="60" as="geometry" />
        </mxCell>
        <mxCell id="80Vt3J0COfULpWK-8F6P-11" value="" style="edgeStyle=orthogonalEdgeStyle;rounded=0;orthogonalLoop=1;jettySize=auto;html=1;labelBackgroundColor=none;strokeColor=#FF6392;fontColor=default;" edge="1" parent="1" source="80Vt3J0COfULpWK-8F6P-2" target="80Vt3J0COfULpWK-8F6P-3">
          <mxGeometry relative="1" as="geometry">
            <Array as="points">
              <mxPoint x="493" y="168" />
              <mxPoint x="493" y="168" />
            </Array>
          </mxGeometry>
        </mxCell>
        <mxCell id="80Vt3J0COfULpWK-8F6P-12" value="" style="edgeStyle=orthogonalEdgeStyle;rounded=0;orthogonalLoop=1;jettySize=auto;html=1;labelBackgroundColor=none;strokeColor=#FF6392;fontColor=default;" edge="1" parent="1" source="80Vt3J0COfULpWK-8F6P-2" target="80Vt3J0COfULpWK-8F6P-1">
          <mxGeometry relative="1" as="geometry">
            <Array as="points">
              <mxPoint x="333" y="208" />
              <mxPoint x="333" y="208" />
            </Array>
          </mxGeometry>
        </mxCell>
        <mxCell id="80Vt3J0COfULpWK-8F6P-13" value="" style="edgeStyle=orthogonalEdgeStyle;rounded=0;orthogonalLoop=1;jettySize=auto;html=1;labelBackgroundColor=none;strokeColor=#FF6392;fontColor=default;" edge="1" parent="1" source="80Vt3J0COfULpWK-8F6P-2" target="80Vt3J0COfULpWK-8F6P-5">
          <mxGeometry relative="1" as="geometry" />
        </mxCell>
        <mxCell id="80Vt3J0COfULpWK-8F6P-2" value="Apache Kafka" style="rounded=1;whiteSpace=wrap;html=1;labelBackgroundColor=none;fillColor=#FFE45E;strokeColor=#FF6392;fontColor=#5AA9E6;" vertex="1" parent="1">
          <mxGeometry x="353" y="158" width="120" height="60" as="geometry" />
        </mxCell>
        <mxCell id="80Vt3J0COfULpWK-8F6P-10" value="" style="edgeStyle=orthogonalEdgeStyle;rounded=0;orthogonalLoop=1;jettySize=auto;html=1;labelBackgroundColor=none;strokeColor=#FF6392;fontColor=default;" edge="1" parent="1" source="80Vt3J0COfULpWK-8F6P-3" target="80Vt3J0COfULpWK-8F6P-2">
          <mxGeometry relative="1" as="geometry">
            <Array as="points">
              <mxPoint x="493" y="208" />
              <mxPoint x="493" y="208" />
            </Array>
          </mxGeometry>
        </mxCell>
        <mxCell id="80Vt3J0COfULpWK-8F6P-16" value="" style="edgeStyle=orthogonalEdgeStyle;rounded=0;orthogonalLoop=1;jettySize=auto;html=1;startArrow=none;startFill=0;labelBackgroundColor=none;strokeColor=#FF6392;fontColor=default;" edge="1" parent="1" source="80Vt3J0COfULpWK-8F6P-3" target="80Vt3J0COfULpWK-8F6P-4">
          <mxGeometry relative="1" as="geometry" />
        </mxCell>
        <mxCell id="80Vt3J0COfULpWK-8F6P-3" value="Backend" style="rounded=1;whiteSpace=wrap;html=1;labelBackgroundColor=none;fillColor=#FFE45E;strokeColor=#FF6392;fontColor=#5AA9E6;" vertex="1" parent="1">
          <mxGeometry x="513" y="158" width="120" height="60" as="geometry" />
        </mxCell>
        <mxCell id="80Vt3J0COfULpWK-8F6P-4" value="Frontend" style="rounded=1;whiteSpace=wrap;html=1;labelBackgroundColor=none;fillColor=#FFE45E;strokeColor=#FF6392;fontColor=#5AA9E6;" vertex="1" parent="1">
          <mxGeometry x="513" y="258" width="120" height="60" as="geometry" />
        </mxCell>
        <mxCell id="80Vt3J0COfULpWK-8F6P-14" value="" style="edgeStyle=orthogonalEdgeStyle;rounded=0;orthogonalLoop=1;jettySize=auto;html=1;labelBackgroundColor=none;strokeColor=#FF6392;fontColor=default;" edge="1" parent="1" source="80Vt3J0COfULpWK-8F6P-5" target="80Vt3J0COfULpWK-8F6P-6">
          <mxGeometry relative="1" as="geometry" />
        </mxCell>
        <mxCell id="80Vt3J0COfULpWK-8F6P-5" value="Kafka Connect" style="rounded=1;whiteSpace=wrap;html=1;labelBackgroundColor=none;fillColor=#FFE45E;strokeColor=#FF6392;fontColor=#5AA9E6;" vertex="1" parent="1">
          <mxGeometry x="353" y="258" width="120" height="60" as="geometry" />
        </mxCell>
        <mxCell id="80Vt3J0COfULpWK-8F6P-15" value="" style="edgeStyle=orthogonalEdgeStyle;rounded=0;orthogonalLoop=1;jettySize=auto;html=1;startArrow=classic;startFill=1;labelBackgroundColor=none;strokeColor=#FF6392;fontColor=default;" edge="1" parent="1" source="80Vt3J0COfULpWK-8F6P-6" target="80Vt3J0COfULpWK-8F6P-7">
          <mxGeometry relative="1" as="geometry" />
        </mxCell>
        <mxCell id="80Vt3J0COfULpWK-8F6P-6" value="Elasticsearch" style="rounded=1;whiteSpace=wrap;html=1;labelBackgroundColor=none;fillColor=#FFE45E;strokeColor=#FF6392;fontColor=#000000;fontSize=17;fontStyle=1" vertex="1" parent="1">
          <mxGeometry x="353" y="368" width="120" height="60" as="geometry" />
        </mxCell>
        <mxCell id="80Vt3J0COfULpWK-8F6P-7" value="Kibana" style="rounded=1;whiteSpace=wrap;html=1;labelBackgroundColor=none;fillColor=#FFE45E;strokeColor=#FF6392;fontColor=#000000;fontSize=17;fontStyle=1" vertex="1" parent="1">
          <mxGeometry x="193" y="368" width="120" height="60" as="geometry" />
        </mxCell>
        <mxCell id="80Vt3J0COfULpWK-8F6P-17" value="Simulador" style="rounded=1;whiteSpace=wrap;html=1;labelBackgroundColor=none;fillColor=#FFE45E;strokeColor=#FF6392;fontColor=#000000;fontSize=17;fontStyle=1" vertex="1" parent="1">
          <mxGeometry x="193" y="158" width="120" height="60" as="geometry" />
        </mxCell>
        <mxCell id="80Vt3J0COfULpWK-8F6P-18" value="Apache Kafka" style="rounded=1;whiteSpace=wrap;html=1;labelBackgroundColor=none;fillColor=#FFE45E;strokeColor=#FF6392;fontColor=#000000;fontSize=17;fontStyle=1" vertex="1" parent="1">
          <mxGeometry x="353" y="158" width="120" height="60" as="geometry" />
        </mxCell>
        <mxCell id="80Vt3J0COfULpWK-8F6P-19" value="Backend" style="rounded=1;whiteSpace=wrap;html=1;labelBackgroundColor=none;fillColor=#FFE45E;strokeColor=#FF6392;fontColor=#000000;fontSize=17;fontStyle=1" vertex="1" parent="1">
          <mxGeometry x="513" y="158" width="120" height="60" as="geometry" />
        </mxCell>
        <mxCell id="80Vt3J0COfULpWK-8F6P-20" value="Frontend" style="rounded=1;whiteSpace=wrap;html=1;labelBackgroundColor=none;fillColor=#FFE45E;strokeColor=#FF6392;fontColor=#000000;fontSize=17;fontStyle=1" vertex="1" parent="1">
          <mxGeometry x="513" y="258" width="120" height="60" as="geometry" />
        </mxCell>
        <mxCell id="80Vt3J0COfULpWK-8F6P-21" value="Kafka Connect" style="rounded=1;whiteSpace=wrap;html=1;labelBackgroundColor=none;fillColor=#FFE45E;strokeColor=#FF6392;fontColor=#000000;fontSize=17;fontStyle=1" vertex="1" parent="1">
          <mxGeometry x="353" y="258" width="120" height="60" as="geometry" />
        </mxCell>
      </root>
    </mxGraphModel>
  </diagram>
</mxfile>
